Webscraping
…
--

.rightcol[

```r
url <- "https://www.ssa.gov/international/coc-docs/states.html"
df <- read_html(url) %>% 
* html_table()

df
```

```
#> [[1]]
#> # A tibble: 56 × 2
#>    X1                   X2   
#>    <chr>                <chr>
#>  1 ALABAMA              AL   
#>  2 ALASKA               AK   
#>  3 AMERICAN SAMOA       AS   
#>  4 ARIZONA              AZ   
#>  5 ARKANSAS             AR   
#>  6 CALIFORNIA           CA   
#>  7 COLORADO             CO   
#>  8 CONNECTICUT          CT   
#>  9 DELAWARE             DE   
#> 10 DISTRICT OF COLUMBIA DC   
#> # … with 46 more rows
```
…
