Programming with Data
…
.rightcol[

Use `map_df()` to merge the data frames 

```r
*map_df(sw_people, \(x) tibble(
    name = x$name, 
    n_vehicles = length(x$films)
  )
)
```

```
#> # A tibble: 87 × 2
#>    name               n_vehicles
#>    <chr>                   <int>
#>  1 Luke Skywalker              5
#>  2 C-3PO                       6
#>  3 R2-D2                       7
#>  4 Darth Vader                 4
#>  5 Leia Organa                 5
#>  6 Owen Lars                   3
#>  7 Beru Whitesun lars          3
#>  8 R5-D4                       1
#>  9 Biggs Darklighter           1
#> 10 Obi-Wan Kenobi              6
#> # … with 77 more rows
```
…
